{
    ".source.eiffel": {
        "Class_End": {
            "prefix": "class...end",
            "body": [
                "class",
                "\t$0",
                "end"
            ]
        },
        "Deferred_Class_End": {
            "prefix": "deferred...class...dend",
            "body": [
                "deferred class",
                "\t$0",
                "end"
            ]
        },
        "Expanded_Class_End": {
            "prefix": "expanded...class...dend",
            "body": [
                "expanded class",
                "\t$0",
                "end"
            ]
        },
        "Frozen_Class_End": {
            "prefix": "frozen...class...dend",
            "body": [
                "frozen class",
                "\t$0",
                "end"
            ]
        },
        "Obsolete": {
            "prefix": "obsolete",
            "body": [
                "obsolete",
                "\t \"$0\""
            ]
        },
        "Feature_None": {
            "prefix": "feature {Feature_name \",\" ...}",
            "body": [
                "feature {$1} -- "
            ]
        },
        "Rename_End": {
            "prefix": "rename...end",
            "body": [
                "rename",
                "\t$0",
                "end"
            ]
        },
        "And_Then": {
            "prefix": "and then",
            "body": [
                "and then "
            ]
        },
        "Or_Else": {
            "prefix": "or else",
            "body": [
                "or else "
            ]
        },
        "Deferred_End": {
            "prefix": "deferred...dend",
            "body": [
                "deferred",
                "\t$0",
                "end"
            ]
        },
        "Once_End": {
            "prefix": "once...end",
            "body": [
                "once",
                "\t$0",
                "end"
            ]
        },
        "Do_End": {
            "prefix": "do...end",
            "body": [
                "do",
                "\t$0",
                "end"
            ]
        },
        "Do_Ensure_End": {
            "prefix": "do...require...ensure...end",
            "body": [
                "require",
                "\t$1",
                "do",
                "\t$0",
                "ensure",
                "\t$2",
                "end"
            ]
        },
        "If_Then_End": {
            "prefix": "if...then...end",
            "body": [
                "if $1 then",
                "\t$0",
                "end"
            ]
        },
        "Across_Until_Loop": {
            "prefix": "across...until...loop",
            "body": [
                "across $1 as $2 loop",
                "\t$0",
                "end"
            ]
        },
        "From_Until_Loop": {
            "prefix": "from...until...loop",
            "body": [
                "from $1 until $2 loop",
                "\t$0",
                "end"
            ]
        }
    }
    
}